 _____            ______   _______  ______   _____  _______  _______  _     _
(____ \     /\   |  ___ \ (_______)(_____ \ (_____)(_______)(_______)| |   | |
 _   \ \   /  \  | | _ | | _____    _____) )   _      __       __    | |   | |
| |   | | / /\ \ | || || ||  ___)  |  ____/   | |    / /      / /    | |   | |
| |__/ / | |__| || || || || |_____ | |       _| |_  / /____  / /____ | |___| |
|_____/  |______||_||_||_||_______)|_|      (_____)(_______)(_______) \______|
